{
    "bounds": "0.0015,0,0.0249,0.0124",
    "center": "0.0127,0.0079,15",
    "minzoom": "14",
    "maxzoom": "18",
    "name": "shoreline",
    "description": "",
    "attribution": "",
    "template": "",
    "version": "1.0.0"
}